Division,WeightClassKg,Place,Name,Team,BodyweightKg,Best3SquatKg,Best3BenchKg,Best3DeadliftKg,TotalKg,Equipment,Event,Sex,BirthDate
Boys,51.71,1,Stephen Ray,Giddings,51.53,117.93,79.38,136.08,333.39,Unlimited,SBD,M,
Boys,51.71,2,Travis Steubing,Smithville,51.62,92.99,65.77,127.01,285.76,Unlimited,SBD,M,
Boys,51.71,3,Etrhan Miller,Bastrop,47.9,74.84,47.63,74.84,197.31,Unlimited,SBD,M,
Boys,55.79,1,Jayden Malone,Liberty Hill,55.79,197.31,108.86,201.85,508.02,Unlimited,SBD,M,
Boys,55.79,2,Jayce Gonzales,Liberty Hill,55.7,147.42,86.18,167.83,401.43,Unlimited,SBD,M,
Boys,55.79,3,Cody Krupala,La Grange,55.7,142.88,102.06,140.61,385.55,Unlimited,SBD,M,
Boys,55.79,4,Antonio Estrada,Taylor,55.25,120.2,86.18,124.74,331.12,Unlimited,SBD,M,
Boys,55.79,5,Jayden Earls,Pflugerville Connally,55.7,102.06,61.23,131.54,294.84,Unlimited,SBD,M,
Boys,55.79,6,Troy Curtis,Jarrell,55.61,102.06,65.77,115.67,283.5,Unlimited,SBD,M,
Boys,55.79,7,Dj Travis,Rockdale,53.89,102.06,52.16,113.4,267.62,Unlimited,SBD,M,
Boys,55.79,NS,Sinclair Guerra,Smithville,,,,,,Unlimited,SBD,M,
Boys,59.87,1,Eric Ontiveros,Liberty Hill,59.33,158.76,120.2,192.78,471.74,Unlimited,SBD,M,
Boys,59.87,2,Gilberto Jaimes,Smithville,59.87,142.88,86.18,167.83,396.89,Unlimited,SBD,M,
Boys,59.87,3,Miguel Nino,Taylor,58.42,136.08,65.77,170.1,371.95,Unlimited,SBD,M,
Boys,59.87,4,Christian Reyes,Luling,58.33,124.74,70.31,142.88,337.93,Unlimited,SBD,M,
Boys,59.87,5,Cooper Peacock,Smithville,58.88,120.2,70.31,136.08,326.59,Unlimited,SBD,M,
Boys,59.87,6,Daniel Ibarra,Del Valle,59.51,111.13,65.77,120.2,297.1,Unlimited,SBD,M,
Boys,59.87,NS,Wyatt Smith,Rockdale,,,,,,Unlimited,SBD,M,
Boys,59.87,DQ,Andrew Cortez,Taylor,58.24,,,,,Unlimited,SBD,M,
Boys,59.87,DQ,Adrian Martinez,Bastrop,57.52,90.72,,,,Unlimited,SBD,M,
Boys,67.13,1,Adan Velasquez,Del Valle,67.04,167.83,115.67,226.8,510.29,Unlimited,SBD,M,
Boys,67.13,2,Owen Garcia,Pflugerville Connally,66.95,165.56,151.95,170.1,487.61,Unlimited,SBD,M,
Boys,67.13,3,Mathew Chen,Bastrop Cedar Creek,64.68,154.22,102.06,163.29,419.57,Unlimited,SBD,M,
Boys,67.13,4,Devon Utecht,Smithville,66.59,124.74,95.25,183.7,403.7,Unlimited,SBD,M,
Boys,67.13,5,Elijah Arnold,Pflugerville Connally,66.32,142.88,81.65,165.56,390.09,Unlimited,SBD,M,
Boys,67.13,6,Adrian Panaigun,Bastrop,66.5,142.88,92.99,154.22,390.09,Unlimited,SBD,M,
Boys,67.13,7,Ethan Stanley,Rockdale,61.78,142.88,86.18,154.22,383.29,Unlimited,SBD,M,
Boys,67.13,8,Cameron Morris,Smithville,61.23,142.88,81.65,149.69,374.21,Unlimited,SBD,M,
Boys,67.13,9,Adrian Garcia,Del Valle,63.23,129.27,77.11,158.76,365.14,Unlimited,SBD,M,
Boys,67.13,10,Alejandro Clavelo,Bastrop Cedar Creek,67.13,133.81,83.91,136.08,353.8,Unlimited,SBD,M,
Boys,67.13,11,Jordan Mock,La Grange,64.32,145.15,70.31,122.47,337.93,Unlimited,SBD,M,
Boys,67.13,12,Billy Plumley,Smithville,65.14,115.67,74.84,117.93,308.44,Unlimited,SBD,M,
Boys,67.13,13,Wyatt Cooper,Elgin,61.78,113.4,70.31,113.4,297.1,Unlimited,SBD,M,
Boys,67.13,14,James Zuniga,Elgin,64.77,83.91,56.7,102.06,242.67,Unlimited,SBD,M,
Boys,67.13,15,Brennon Hopkins,Bastrop,65.32,81.65,63.5,86.18,231.33,Unlimited,SBD,M,
Boys,67.13,16,Gavin Gratham,Luling,64.77,88.45,56.7,81.65,226.8,Unlimited,SBD,M,
Boys,67.13,NS,Ayden Pena,Rockdale,,,,,,Unlimited,SBD,M,
Boys,67.13,NS,Anthony Alderete,Taylor,,,,,,Unlimited,SBD,M,
Boys,67.13,DQ,Gabriel Maranon,Bastrop,62.6,,,,,Unlimited,SBD,M,
Boys,67.13,NS,Kyle Montgomery,Giddings,,,,,,Unlimited,SBD,M,
Boys,67.13,NS,Bryce Leal,Luling,,,,,,Unlimited,SBD,M,
Boys,67.13,DQ,Christian Osorio,Smithville,65.77,176.9,92.99,,,Unlimited,SBD,M,
Boys,67.13,DQ,Zaden Howard,Pflugerville Connally,63.32,136.08,,,,Unlimited,SBD,M,
Boys,74.84,1,Jamal Abercrumbia,Pflugerville Connally,70.76,217.72,142.88,235.87,596.47,Unlimited,SBD,M,
Boys,74.84,2,Luciano Arias,Taylor,74.66,183.7,124.74,192.78,501.22,Unlimited,SBD,M,
Boys,74.84,3,Cole Smith,Liberty Hill,74.84,195.04,129.27,174.63,498.95,Unlimited,SBD,M,
Boys,74.84,4,Jonah Garcia,Pflugerville Connally,73.94,172.37,147.42,174.63,494.42,Unlimited,SBD,M,
Boys,74.84,5,Elijah Fackler,Bastrop Cedar Creek,73.03,167.83,113.4,210.92,492.15,Unlimited,SBD,M,
Boys,74.84,6,Ramon Ortiz,La Grange,73.03,163.29,92.99,163.29,419.57,Unlimited,SBD,M,
Boys,74.84,7,James Young,Elgin,73.12,158.76,102.06,158.76,419.57,Unlimited,SBD,M,
Boys,74.84,8,John Davis,Schulenburg,73.48,151.95,108.86,151.95,412.77,Unlimited,SBD,M,
Boys,74.84,9,Ky Sanford,Taylor,70.31,165.56,92.99,147.42,405.97,Unlimited,SBD,M,
Boys,74.84,10,Aidan Freeman,Luling,70.4,136.08,90.72,167.83,394.63,Unlimited,SBD,M,
Boys,74.84,12,Tyler Royal,Giddings,69.13,133.81,88.45,138.35,360.61,Unlimited,SBD,M,
Boys,74.84,13,Treydon Sheffield,Elgin,71.67,115.67,92.99,142.88,351.53,Unlimited,SBD,M,
Boys,74.84,14,Javon Webster,Smithville,71.21,102.06,61.23,127.01,290.3,Unlimited,SBD,M,
Boys,74.84,15,Julian Cabrera,Bastrop Cedar Creek,71.44,92.99,61.23,99.79,254.01,Unlimited,SBD,M,
Boys,74.84,NS,Julian Epati,Jarrell,,,,,,Unlimited,SBD,M,
Boys,74.84,NS,Marco Bolanos,Luling,,,,,,Unlimited,SBD,M,
Boys,74.84,NS,Jonah Hernandez,Luling,,,,,,Unlimited,SBD,M,
Boys,74.84,DQ,Colten Kloessel,Liberty Hill,73.94,,,,,Unlimited,SBD,M,
Boys,74.84,DQ,Jaiden Cooly,Jarrell,68.76,,,,,Unlimited,SBD,M,
Boys,74.84,DQ,Beau Barrager,Giddings,69.31,106.59,63.5,,,Unlimited,SBD,M,
Boys,74.84,DQ,Logan Dillon,Bastrop,72.39,102.06,,,,Unlimited,SBD,M,
Boys,74.84,DQ,Jose Baruetta,Del Valle,74.75,199.58,,,,Unlimited,SBD,M,
Boys,74.84,DQ,Daniel Romero,Rockdale,73.71,149.69,,,,Unlimited,SBD,M,
Boys,82.1,1,Evan Neilson,Liberty Hill,81.19,249.48,136.08,226.8,612.35,Unlimited,SBD,M,
Boys,82.1,2,Isaac Pina,Luling,79.2,190.51,147.42,190.51,528.44,Unlimited,SBD,M,
Boys,82.1,3,Brandt Whitlow,Taylor,79.83,222.26,111.13,190.51,523.9,Unlimited,SBD,M,
Boys,82.1,4,Austin McGill,Liberty Hill,78.38,195.04,127.01,183.7,505.76,Unlimited,SBD,M,
Boys,82.1,5,Isaiah Trejo,Bastrop Cedar Creek,81.01,179.17,124.74,183.7,487.61,Unlimited,SBD,M,
Boys,82.1,6,Dylan Jones,Rockdale,75.48,176.9,97.52,208.65,483.08,Unlimited,SBD,M,
Boys,82.1,7,Da'Von Giscome,La Grange,81.83,167.83,111.13,183.7,462.66,Unlimited,SBD,M,
Boys,82.1,8,Ryder Bass,Taylor,82.1,165.56,131.54,156.49,453.59,Unlimited,SBD,M,
Boys,82.1,9,Mason Kunschick,Schulenburg,81.1,151.95,97.52,181.44,430.91,Unlimited,SBD,M,
Boys,82.1,10,Cooper Stockdale,Smithville,81.19,142.88,90.72,174.63,408.23,Unlimited,SBD,M,
Boys,82.1,11,Jonthan Calderon,Bastrop Cedar Creek,79.83,142.88,97.52,133.81,374.21,Unlimited,SBD,M,
Boys,82.1,11,Ivan Mendez,Del Valle,75.39,142.88,77.11,156.49,376.48,Unlimited,SBD,M,
Boys,82.1,12,Anthony Sosa,Bastrop Cedar Creek,82.1,142.88,81.65,147.42,371.95,Unlimited,SBD,M,
Boys,82.1,13,Bobby Galabeas,Smithville,79.29,90.72,65.77,117.93,274.42,Unlimited,SBD,M,
Boys,82.1,14,Kaylor Eschberger,Rockdale,75.66,104.33,61.23,102.06,267.62,Unlimited,SBD,M,
Boys,82.1,DQ,Julius Trujillo,Luling,81.74,161.03,88.45,,,Unlimited,SBD,M,
Boys,82.1,DQ,Nathaniel Oziran,Liberty Hill,81.37,,,,,Unlimited,SBD,M,
Boys,82.1,DQ,Adam Thompson,Schulenburg,81.92,190.51,,,,Unlimited,SBD,M,
Boys,82.1,DQ,Devyn Bradley,Schulenburg,80.1,158.76,,,,Unlimited,SBD,M,
Boys,82.1,DQ,Tanner Pickering,Bastrop,78.83,,,,,Unlimited,SBD,M,
Boys,82.1,DQ,Connor Smith,Giddings,81.74,111.13,,,,Unlimited,SBD,M,
Boys,89.81,1,Jaydus Bell,Pflugerville Connally,87.63,217.72,138.35,226.8,582.87,Unlimited,SBD,M,
Boys,89.81,2,Parker Langwell,Liberty Hill,89.81,231.33,138.35,208.65,578.33,Unlimited,SBD,M,
Boys,89.81,3,Jose Soto,Smithville,85.73,199.58,133.81,199.58,532.97,Unlimited,SBD,M,
Boys,89.81,4,Mathew Clear,Elgin,83.55,195.04,138.35,192.78,526.17,Unlimited,SBD,M,
Boys,89.81,5,Ernesto Ramon,Elgin,84.28,197.31,127.01,188.24,512.56,Unlimited,SBD,M,
Boys,89.81,6,Nathan Basche,Taylor,85.91,188.24,136.08,183.7,508.02,Unlimited,SBD,M,
Boys,89.81,7,Conor Burleson,Smithville,88.27,183.7,108.86,176.9,469.47,Unlimited,SBD,M,
Boys,89.81,8,Trent Miles,Bastrop,88.45,183.7,115.67,170.1,469.47,Unlimited,SBD,M,
Boys,89.81,9,Dean Bradley,Schulenburg,84.01,183.7,102.06,170.1,455.86,Unlimited,SBD,M,
Boys,89.81,10,Damari Reed,Pflugerville Connally,88.99,174.63,111.13,165.56,451.32,Unlimited,SBD,M,
Boys,89.81,11,Stihl Gartman,Smithville,85.73,170.1,95.25,183.7,449.06,Unlimited,SBD,M,
Boys,89.81,12,Caleb Webster,Jarrell,83.73,158.76,113.4,174.63,446.79,Unlimited,SBD,M,
Boys,89.81,13,Henry Martone,Jarrell,84.1,154.22,104.33,188.24,446.79,Unlimited,SBD,M,
Boys,89.81,14,Case Adams,Giddings,84.28,190.51,95.25,147.42,433.18,Unlimited,SBD,M,
Boys,89.81,15,Justin Vinces-Ortiz,Jarrell,83.46,142.88,102.06,185.97,430.91,Unlimited,SBD,M,
Boys,89.81,16,Henry Beyer,Elgin,83.01,113.4,92.99,138.35,344.73,Unlimited,SBD,M,
Boys,89.81,17,Jake Gosselink,Bastrop,83.82,108.86,65.77,131.54,306.17,Unlimited,SBD,M,
Boys,89.81,18,Joel Guerrero,Elgin,88.36,102.06,81.65,113.4,297.1,Unlimited,SBD,M,
Boys,89.81,NS,Izayah Lopez,Bastrop,,,,,,Unlimited,SBD,M,
Boys,89.81,NS,Andre Solis,Taylor,,,,,,Unlimited,SBD,M,
Boys,89.81,DQ,Colbey Solis,Taylor,87.27,249.48,136.08,,,Unlimited,SBD,M,
Boys,89.81,DQ,Klaybourne Eschberger,Rockdale,89.45,,,,,Unlimited,SBD,M,
Boys,89.81,DQ,Cesar Sandoval,Bastrop Cedar Creek,88.18,167.83,,,,Unlimited,SBD,M,
Boys,89.81,DQ,Kirk Campbell,Luling,82.37,124.74,,,,Unlimited,SBD,M,
Boys,99.79,1,Noah Baxter,Smithville,90.36,238.14,127.01,256.28,621.42,Unlimited,SBD,M,
Boys,99.79,2,Chris Borja,Smithville,98.88,229.06,151.95,224.53,605.55,Unlimited,SBD,M,
Boys,99.79,3,Erick Guevara,La Grange,99.7,240.4,131.54,195.04,566.99,Unlimited,SBD,M,
Boys,99.79,4,Yousvani Trujullo,Del Valle,98.43,183.7,136.08,210.92,530.7,Unlimited,SBD,M,
Boys,99.79,5,Joshua Luna,Pflugerville Connally,97.79,181.44,106.59,192.78,480.81,Unlimited,SBD,M,
Boys,99.79,6,Ely Glissson,La Grange,90.63,190.51,120.2,167.83,478.54,Unlimited,SBD,M,
Boys,99.79,7,Paul Pin,Del Valle,99.61,158.76,122.47,197.31,478.54,Unlimited,SBD,M,
Boys,99.79,8,Jose Almanza,Luling,91.08,181.44,102.06,170.1,453.59,Unlimited,SBD,M,
Boys,99.79,9,Kallen Baker,La Grange,95.16,154.22,102.06,183.7,439.98,Unlimited,SBD,M,
Boys,99.79,10,Jackson Davenport,Bastrop Cedar Creek,90.81,158.76,86.18,165.56,410.5,Unlimited,SBD,M,
Boys,99.79,11,Nathan Snyder,Giddings,92.26,163.29,99.79,147.42,410.5,Unlimited,SBD,M,
Boys,99.79,12,Zander Hess,Jarrell,91.9,145.15,81.65,154.22,381.02,Unlimited,SBD,M,
Boys,99.79,13,Donovan Anderson,Elgin,96.71,151.95,68.04,158.76,378.75,Unlimited,SBD,M,
Boys,99.79,14,Garrett Wilhelm,Smithville,98.43,122.47,102.06,151.95,376.48,Unlimited,SBD,M,
Boys,99.79,15,Levi Lewis,Luling,96.07,97.52,61.23,131.54,290.3,Unlimited,SBD,M,
Boys,99.79,NS,Miles Leonard,La Grange,,,,,,Unlimited,SBD,M,
Boys,109.77,1,Carson Hartranft,Giddings,107.5,240.4,145.15,208.65,594.21,Unlimited,SBD,M,
Boys,109.77,2,Ragan Roberts,Rockdale,104.87,215.46,142.88,183.7,542.04,Unlimited,SBD,M,
Boys,109.77,3,Melvin McPherson,Pflugerville Connally,109.59,226.8,120.2,181.44,528.44,Unlimited,SBD,M,
Boys,109.77,4,Dawson Wiley,Giddings,108.32,188.24,124.74,183.7,496.68,Unlimited,SBD,M,
Boys,109.77,5,Ayden Vazquez,Elgin,107.68,158.76,113.4,147.42,419.57,Unlimited,SBD,M,
Boys,109.77,6,Silus Huckaby,Jarrell,105.78,151.95,92.99,165.56,410.5,Unlimited,SBD,M,
Boys,109.77,NS,Cedric Gould,Liberty Hill,,,,,,Unlimited,SBD,M,
Boys,109.77,NS,Jett Harrison,Liberty Hill,,,,,,Unlimited,SBD,M,
Boys,109.77,NS,Caden Stockdale,Smithville,,,,,,Unlimited,SBD,M,
Boys,109.77,NS,Isaiah Sanchez,Taylor,,,,,,Unlimited,SBD,M,
Boys,109.77,DQ,Jace Henderson,Rockdale,103.51,,,,,Unlimited,SBD,M,
Boys,109.77,DQ,Takae Augustine,Del Valle,108.23,192.78,,,,Unlimited,SBD,M,
Boys,124.74,1,Hector Arradondo,Bastrop Cedar Creek,109.95,254.01,154.22,231.33,639.57,Unlimited,SBD,M,
Boys,124.74,2,Marshall Wellborn,Schulenburg,122.29,197.31,142.88,231.33,571.53,Unlimited,SBD,M,
Boys,124.74,3,Elmer Saldierna,La Grange,111.67,199.58,136.08,176.9,512.56,Unlimited,SBD,M,
Boys,124.74,4,Daniel Simpson,Liberty Hill,110.36,185.97,124.74,192.78,503.49,Unlimited,SBD,M,
Boys,124.74,5,Alex Salazar,Luling,117.21,181.44,104.33,170.1,455.86,Unlimited,SBD,M,
Boys,124.74,DQ,Marco Chairez,Giddings,122.74,151.95,,,,Unlimited,SBD,M,
Boys,124.74,DQ,Cody Trummal,Bastrop Cedar Creek,111.13,195.04,,,,Unlimited,SBD,M,
Boys,124.74,DQ,Edgar Chaparro,Bastrop Cedar Creek,112.94,219.99,,,,Unlimited,SBD,M,
Boys,124.74,DQ,Zion Burnett,Pflugerville Connally,121.29,217.72,158.76,,,Unlimited,SBD,M,
Boys,124.74,DQ,Ryley Williams,Bastrop,112.85,195.04,108.86,,,Unlimited,SBD,M,
Boys,139.71,1,Kevin Ramirez,Giddings,137.35,290.3,219.99,235.87,746.16,Unlimited,SBD,M,
Boys,139.71,2,Peyton Dees,Giddings,133.27,251.74,154.22,210.92,616.89,Unlimited,SBD,M,
Boys,139.71,3,Ricky Walton,Schulenburg,130.18,222.26,115.67,201.85,539.77,Unlimited,SBD,M,
Boys,139.71,4,Joseph Mares,Del Valle,135.08,192.78,106.59,217.72,517.1,Unlimited,SBD,M,
Boys,139.71,5,Sebastian Vaquera,Pflugerville Connally,130.54,204.12,124.74,183.7,512.56,Unlimited,SBD,M,
Boys,139.71,NS,Cody Cedar,Jarrell,,,,,,Unlimited,SBD,M,
Boys,139.71,DQ,Kenja Martin,Elgin,131.36,142.88,83.91,,,Unlimited,SBD,M,
Boys,139.71,DQ,Jaxon Taylor,Bastrop,132.45,,,,,Unlimited,SBD,M,
Boys,139.71+,1,Steven Flores,Del Valle,170.19,210.92,170.1,213.19,594.21,Unlimited,SBD,M,
Boys,139.71+,2,Calvin Thompson,Schulenburg,148.32,226.8,136.08,190.51,553.38,Unlimited,SBD,M,
Boys,139.71+,3,Lance Jaramillo,Bastrop Cedar Creek,145.78,195.04,111.13,185.97,492.15,Unlimited,SBD,M,
Boys,139.71+,4,Sebastion Monroy,Elgin,141.79,183.7,113.4,154.22,451.32,Unlimited,SBD,M,
Boys,139.71+,NS,Alex Guerrero,Del Valle,,,,,,Unlimited,SBD,M,
Boys,139.71+,DQ,Dylan Lester,Jarrell,150.32,188.24,108.86,,,Unlimited,SBD,M,
