Division,WeightClassKg,Place,Name,Team,BodyweightKg,Best3SquatKg,Best3BenchKg,Best3DeadliftKg,TotalKg,Equipment,Event,Sex,BirthDate
Boys,51.71,1,Tyler Fagan,College Station A&M Cons,49.44,104.33,61.23,104.33,269.89,Unlimited,SBD,M,
Boys,51.71,2,Gavin Whyte,Jewett Leon,45.81,83.91,61.23,102.06,247.21,Unlimited,SBD,M,
Boys,55.79,1,Drew Werlinger,Milano,54.88,133.81,86.18,161.03,381.02,Unlimited,SBD,M,
Boys,55.79,2,Keeghan Guerra,Groveton,55.79,127.01,79.38,131.54,337.93,Unlimited,SBD,M,
Boys,55.79,3,Jd Chambers,Milano,55.34,115.67,77.11,133.81,326.59,Unlimited,SBD,M,
Boys,55.79,DQ,Landon Villatoro,Mexia,53.07,88.45,,,,Unlimited,SBD,M,
Boys,59.87,1,Matthew Hunter,College Station A&M Cons,59.42,129.27,88.45,129.27,347,Unlimited,SBD,M,
Boys,59.87,2,Sam Battles,Milano,59.87,120.2,79.38,142.88,342.46,Unlimited,SBD,M,
Boys,59.87,3,Angel Guillen,Jewett Leon,58.51,111.13,63.5,142.88,317.51,Unlimited,SBD,M,
Boys,59.87,4,Joshua Dial,Normangee,58.97,120.2,72.57,117.93,310.71,Unlimited,SBD,M,
Boys,59.87,5,Cole Sorters,Normangee,59.87,104.33,65.77,136.08,306.17,Unlimited,SBD,M,
Boys,59.87,6,Manuel Guardado,Buffalo,58.97,97.52,65.77,102.06,265.35,Unlimited,SBD,M,
Boys,59.87,DQ,Isaac Mitchell,Centerville,58.97,102.06,,,,Unlimited,SBD,M,
Boys,67.13,1,Erick Rivera,Mexia,65.77,172.37,104.33,181.44,458.13,Unlimited,SBD,M,
Boys,67.13,2,Tyler Collier,Milano,65.32,142.88,136.08,170.1,449.06,Unlimited,SBD,M,
Boys,67.13,3,Cole Dyer,Milano,65.32,161.03,99.79,172.37,433.18,Unlimited,SBD,M,
Boys,67.13,4,Ryan Barbara,Chilton,67.13,158.76,102.06,172.37,433.18,Unlimited,SBD,M,
Boys,67.13,5,Javier Zarate,Normangee,63.05,151.95,92.99,183.7,428.64,Unlimited,SBD,M,
Boys,67.13,6,Gabe Sanders,Milano,62.6,142.88,106.59,174.63,424.11,Unlimited,SBD,M,
Boys,67.13,7,Markeydrick Taylor,Chilton,67.13,165.56,92.99,158.76,417.3,Unlimited,SBD,M,
Boys,67.13,8,Brian Carter,Mexia,65.77,124.74,92.99,188.24,405.97,Unlimited,SBD,M,
Boys,67.13,9,Angel Maldanado,Groveton,67.13,147.42,99.79,124.74,371.95,Unlimited,SBD,M,
Boys,67.13,10,Adalberto Rodriguez,Bruceville-Eddy,63.96,129.27,77.11,133.81,340.19,Unlimited,SBD,M,
Boys,67.13,11,Jaxon Hardin,Buffalo,64.41,124.74,77.11,122.47,324.32,Unlimited,SBD,M,
Boys,67.13,12,Elijah Harper,Buffalo,63.96,117.93,61.23,142.88,322.05,Unlimited,SBD,M,
Boys,67.13,13,William Martinez,Normangee,65.77,106.59,68.04,142.88,317.51,Unlimited,SBD,M,
Boys,67.13,14,Kewshawn Green,Chilton,63.5,102.06,63.5,113.4,278.96,Unlimited,SBD,M,
Boys,67.13,15,Jackson Miller,Bruceville-Eddy,64.41,83.91,52.16,133.81,269.89,Unlimited,SBD,M,
Boys,67.13,DQ,Josh Gorman,Centerville,65.77,124.74,,,,Unlimited,SBD,M,
Boys,67.13,DQ,Ryan Smith,Groveton,66.22,117.93,,,,Unlimited,SBD,M,
Boys,67.13,DQ,Jack Thorton,Jewett Leon,65.32,120.2,,,,Unlimited,SBD,M,
Boys,74.84,1,Liam Gale,Normangee,73.03,213.19,133.81,204.12,551.11,Unlimited,SBD,M,
Boys,74.84,2,Gerald Dykes,Milano,74.84,183.7,127.01,199.58,510.29,Unlimited,SBD,M,
Boys,74.84,3,Abraham Saldana,Mexia,70.76,197.31,117.93,188.24,503.49,Unlimited,SBD,M,
Boys,74.84,4,Jack Williams,College Station A&M Cons,71.21,188.24,115.67,192.78,496.68,Unlimited,SBD,M,
Boys,74.84,5,Cyris Gray,Centerville,70.31,174.63,124.74,170.1,469.47,Unlimited,SBD,M,
Boys,74.84,6,Phoenix Bowman,Groveton,70.76,181.44,106.59,163.29,451.32,Unlimited,SBD,M,
Boys,74.84,7,Noah Reagler,Mexia,73.03,149.69,115.67,185.97,451.32,Unlimited,SBD,M,
Boys,74.84,8,Zane O'Neal,Normangee,69.4,156.49,102.06,181.44,439.98,Unlimited,SBD,M,
Boys,74.84,9,Adrian Avila,Mexia,72.12,174.63,83.91,179.17,437.72,Unlimited,SBD,M,
Boys,74.84,10,Wyatt Burleson,Centerville,68.04,165.56,111.13,158.76,435.45,Unlimited,SBD,M,
Boys,74.84,11,Tralan Brooks,Mexia,68.95,156.49,104.33,172.37,433.18,Unlimited,SBD,M,
Boys,74.84,12,Austin Dodge,College Station A&M Cons,68.04,147.42,95.25,161.03,403.7,Unlimited,SBD,M,
Boys,74.84,13,Landon Conley,Groveton,71.67,145.15,92.99,156.49,394.63,Unlimited,SBD,M,
Boys,74.84,14,William Delgado,Bryan Rudder,68.95,140.61,74.84,142.88,358.34,Unlimited,SBD,M,
Boys,74.84,15,Dylan Newman,Groveton,69.85,124.74,81.65,127.01,333.39,Unlimited,SBD,M,
Boys,74.84,16,Andrew Comly,Bryan Rudder,70.76,122.47,58.97,136.08,317.51,Unlimited,SBD,M,
Boys,74.84,17,Aiden Lowe,Centerville,68.49,92.99,70.31,136.08,299.37,Unlimited,SBD,M,
Boys,74.84,DQ,Marc Baxter,Buffalo,72.57,,,,,Unlimited,SBD,M,
Boys,82.1,1,Matthew Lim,Jewett Leon,79.83,219.99,106.59,258.55,585.13,Unlimited,SBD,M,
Boys,82.1,2,Trystin Ard,Groveton,79.38,206.38,133.81,199.58,539.77,Unlimited,SBD,M,
Boys,82.1,3,Logan Truitt,Jewett Leon,78.47,192.78,97.52,215.46,505.76,Unlimited,SBD,M,
Boys,82.1,4,Xzavion Taylor,Chilton,82.1,167.83,120.2,188.24,476.27,Unlimited,SBD,M,
Boys,82.1,5,Miguel Leduna,Centerville,79.83,174.63,124.74,174.63,474,Unlimited,SBD,M,
Boys,82.1,6,Caleb Pittman,College Station A&M Cons,78.47,174.63,113.4,170.1,458.13,Unlimited,SBD,M,
Boys,82.1,7,Sammy Simons,Bruceville-Eddy,81.65,165.56,111.13,181.44,458.13,Unlimited,SBD,M,
Boys,82.1,8,Abram Castaneda,Milano,78.93,165.56,95.25,183.7,444.52,Unlimited,SBD,M,
Boys,82.1,9,Peyton Steinbecker,Milano,78.47,158.76,106.59,163.29,428.64,Unlimited,SBD,M,
Boys,82.1,10,LeZah Roddy-Boyd,Chilton,75.75,113.4,68.04,120.2,301.64,Unlimited,SBD,M,
Boys,82.1,DQ,Carlos Gaytan,College Station A&M Cons,80.29,,,,,Unlimited,SBD,M,
Boys,82.1,DQ,Adam Neptune,Buffalo,78.02,165.56,,,,Unlimited,SBD,M,
Boys,82.1,DQ,Marshall Harris,Normangee,79.83,145.15,,,,Unlimited,SBD,M,
Boys,89.81,1,Carson Carter,Bruceville-Eddy,88.9,204.12,124.74,229.06,557.92,Unlimited,SBD,M,
Boys,89.81,2,Ethan Walton,College Station A&M Cons,88.45,201.85,142.88,210.92,555.65,Unlimited,SBD,M,
Boys,89.81,3,Kourtavion Hutchinson,College Station A&M Cons,88.45,176.9,149.69,183.7,510.29,Unlimited,SBD,M,
Boys,89.81,4,Jace Metzer,Normangee,89.36,199.58,122.47,183.7,505.76,Unlimited,SBD,M,
Boys,89.81,5,Aiden Marchand,Buffalo,89.81,238.14,124.74,142.88,505.76,Unlimited,SBD,M,
Boys,89.81,6,Case Wells,Normangee,89.81,181.44,113.4,185.97,480.81,Unlimited,SBD,M,
Boys,89.81,7,Colton Bosse,Chilton,89.81,167.83,117.93,190.51,476.27,Unlimited,SBD,M,
Boys,89.81,8,Jacques Cooper,Mexia,88,147.42,122.47,185.97,455.86,Unlimited,SBD,M,
Boys,89.81,9,Lucas Barnes,Normangee,86.64,156.49,97.52,176.9,430.91,Unlimited,SBD,M,
Boys,89.81,10,Gus Brewer,Buffalo,88.63,151.95,97.52,165.56,415.04,Unlimited,SBD,M,
Boys,89.81,11,Daniel Blees,Mexia,85.73,142.88,104.33,163.29,410.5,Unlimited,SBD,M,
Boys,89.81,12,George Lopez,Bruceville-Eddy,86.64,151.95,90.72,165.56,408.23,Unlimited,SBD,M,
Boys,89.81,13,Rhett Boyd,Buffalo,89.45,151.95,97.52,158.76,408.23,Unlimited,SBD,M,
Boys,89.81,14,Andrew Gonzalez,Groveton,87.54,142.88,97.52,136.08,376.48,Unlimited,SBD,M,
Boys,89.81,15,Carson Averitt,Buffalo,87.36,142.88,83.91,145.15,371.95,Unlimited,SBD,M,
Boys,89.81,16,Josh Athley,Bruceville-Eddy,84.37,129.27,81.65,151.95,362.87,Unlimited,SBD,M,
Boys,89.81,17,Jairo Rueda,Chilton,83.01,102.06,90.72,122.47,315.25,Unlimited,SBD,M,
Boys,99.79,1,Levodrick Phillips,Jewett Leon,97.07,249.48,183.7,240.4,673.58,Unlimited,SBD,M,
Boys,99.79,2,Waylon Trejo,College Station A&M Cons,99.79,226.8,138.35,238.14,603.28,Unlimited,SBD,M,
Boys,99.79,3,Beckham McGuire,College Station A&M Cons,95.71,233.6,127.01,210.92,571.53,Unlimited,SBD,M,
Boys,99.79,4,Zaid Marquez,Jewett Leon,99.34,201.85,115.67,213.19,530.7,Unlimited,SBD,M,
Boys,99.79,5,Cotton Brigner,Jewett Leon,91.17,188.24,117.93,188.24,494.42,Unlimited,SBD,M,
Boys,99.79,6,Landon Phillips,Normangee,93.44,174.63,111.13,179.17,464.93,Unlimited,SBD,M,
Boys,99.79,7,Landon Grahmann,Milano,94.35,172.37,92.99,192.78,458.13,Unlimited,SBD,M,
Boys,99.79,8,Chase Wells,Milano,99.34,147.42,111.13,192.78,451.32,Unlimited,SBD,M,
Boys,99.79,9,Migel Fajardo,Chilton,90.72,138.35,83.91,142.88,365.14,Unlimited,SBD,M,
Boys,99.79,10,Chauncey King,Chilton,91.63,113.4,90.72,136.08,340.19,Unlimited,SBD,M,
Boys,99.79,11,Travis Currie,Groveton,98.88,129.27,74.84,136.08,340.19,Unlimited,SBD,M,
Boys,99.79,12,Brandon Burry,Bruceville-Eddy,93.89,124.74,70.31,142.88,337.93,Unlimited,SBD,M,
Boys,99.79,13,Rekless Keen,Milano,94.8,97.52,72.57,115.67,285.76,Unlimited,SBD,M,
Boys,109.77,1,Lorenzo Robles,Chilton,107.05,204.12,142.88,192.78,539.77,Unlimited,SBD,M,
Boys,109.77,2,Logan Townsend,Groveton,101.15,222.26,111.13,195.04,528.44,Unlimited,SBD,M,
Boys,109.77,3,Bryant Murphy,Chilton,102.97,131.54,92.99,147.42,371.95,Unlimited,SBD,M,
Boys,109.77,DQ,Alan Blanks,Groveton,107.5,,,,,Unlimited,SBD,M,
Boys,124.74,1,Mike Brauer,Buffalo,116.12,254.01,136.08,215.46,605.55,Unlimited,SBD,M,
Boys,124.74,2,Jacob Koeneman,College Station A&M Cons,111.13,226.8,156.49,217.72,601.01,Unlimited,SBD,M,
Boys,124.74,3,Vakapuna Foketi,College Station A&M Cons,124.28,215.46,129.27,215.46,560.19,Unlimited,SBD,M,
Boys,124.74,4,Keaton Crowley,Centerville,115.67,192.78,165.56,183.7,542.04,Unlimited,SBD,M,
Boys,124.74,5,Pablo Gonzalez,Buffalo,116.57,204.12,108.86,183.7,496.68,Unlimited,SBD,M,
Boys,124.74,6,Armondo Robles,Chilton,113.85,181.44,106.59,188.24,476.27,Unlimited,SBD,M,
Boys,124.74,7,Cash Moore,Groveton,116.57,188.24,102.06,174.63,464.93,Unlimited,SBD,M,
Boys,124.74,8,Kyle Lane,Mexia,115.21,167.83,97.52,167.83,433.18,Unlimited,SBD,M,
Boys,124.74,9,Isaiah Gutierrez,Bryan Rudder,116.12,154.22,90.72,149.69,394.63,Unlimited,SBD,M,
Boys,124.74,10,Angelitto Smith,Chilton,112.49,158.76,90.72,142.88,392.36,Unlimited,SBD,M,
Boys,124.74,DQ,Jaxson Swallow,Jewett Leon,120.2,238.14,129.27,,,Unlimited,SBD,M,
Boys,139.71,1,Xavier West,Mexia,125.65,317.51,149.69,235.87,703.07,Unlimited,SBD,M,
Boys,139.71,2,Juan Gutierrez,Bryan Rudder,131.09,235.87,108.86,197.31,542.04,Unlimited,SBD,M,
Boys,139.71,3,Gabriel García,Bryan Rudder,127.91,215.46,122.47,170.1,508.02,Unlimited,SBD,M,
Boys,139.71,4,Austin Manly,Bruceville-Eddy,128.37,167.83,115.67,174.63,458.13,Unlimited,SBD,M,
Boys,139.71,5,Omar Bustamante,Bryan Rudder,132,167.83,108.86,154.22,430.91,Unlimited,SBD,M,
Boys,139.71,6,Gabriel Carmero,Bryan Rudder,127.46,136.08,77.11,113.4,326.59,Unlimited,SBD,M,
Boys,139.71+,1,Joaquin Parra,Bryan Rudder,142.88,136.08,83.91,113.4,333.39,Unlimited,SBD,M,
Boys,,NS,Hunter McGary,Bryan Rudder,,,,,,Unlimited,SBD,M,
Boys,,NS,Nathan Hulsey,Bruceville-Eddy,,,,,,Unlimited,SBD,M,
Boys,,NS,Harley Higgins,Bruceville-Eddy,,,,,,Unlimited,SBD,M,
Boys,,NS,Philip Eddins,Bruceville-Eddy,,,,,,Unlimited,SBD,M,
Boys,,NS,Aj Thomson,Bruceville-Eddy,,,,,,Unlimited,SBD,M,
Boys,,NS,Trent Moore,Centerville,,,,,,Unlimited,SBD,M,
Boys,,NS,Jametric Adams,Mexia,,,,,,Unlimited,SBD,M,
Boys,,NS,George Burke,Milano,,,,,,Unlimited,SBD,M,
