Division,WeightClassKg,Place,Name,Team,BodyweightKg,Best3SquatKg,Best3BenchKg,Best3DeadliftKg,TotalKg,Equipment,Event,Sex,BirthDate
Boys,51.71,1,Orlando Mendoza,Perryton,51.48,136.08,79.38,122.47,337.93,Unlimited,SBD,M,
Boys,51.71,2,Santiago Chavez,Dimmitt,51.21,122.47,63.5,133.81,319.78,Unlimited,SBD,M,
Boys,51.71,3,Ricardo Barron,Perryton,50.89,108.86,72.57,115.67,297.1,Unlimited,SBD,M,
Boys,51.71,4,Jake Schickedanz,Perryton,47.17,72.57,40.82,90.72,204.12,Unlimited,SBD,M,
Boys,55.79,1,Fabian Viernes,Bovina,55.79,179.17,120.2,179.17,478.54,Unlimited,SBD,M,
Boys,55.79,2,Josh Lawrence,Dumas,54.84,174.63,88.45,170.1,433.18,Unlimited,SBD,M,
Boys,55.79,3,Edward Castellano,Levelland,54.66,102.06,65.77,111.13,278.96,Unlimited,SBD,M,
Boys,59.87,1,Carlos Parra,Dumas,59.83,183.7,95.25,188.24,467.2,Unlimited,SBD,M,
Boys,59.87,2,Zaden Carrillo,Levelland,58.83,136.08,74.84,161.03,371.95,Unlimited,SBD,M,
Boys,59.87,3,Charlie Montgomery,Vega,57.79,129.27,74.84,120.2,324.32,Unlimited,SBD,M,
Boys,59.87,4,Jaime Arzate,Dimmitt,57.15,102.06,70.31,115.67,288.03,Unlimited,SBD,M,
Boys,59.87,5,Nickolas Cervantes,Lockney,58.24,113.4,61.23,113.4,288.03,Unlimited,SBD,M,
Boys,59.87,6,Darey Rueda,Bovina,59.28,81.65,63.5,111.13,256.28,Unlimited,SBD,M,
Boys,67.13,1,Diego Santellano,Dimmitt,66.22,204.12,120.2,195.04,519.36,Unlimited,SBD,M,
Boys,67.13,2,Jorge Garcia,Friona,62.91,197.31,115.67,192.78,505.76,Unlimited,SBD,M,
Boys,67.13,3,Erik Estrada,Friona,67,188.24,97.52,190.51,476.27,Unlimited,SBD,M,
Boys,67.13,4,Abel Lucero,Perryton,66.32,167.83,113.4,192.78,474,Unlimited,SBD,M,
Boys,67.13,5,Gabriel Ramos,Friona,65.18,176.9,111.13,181.44,469.47,Unlimited,SBD,M,
Boys,67.13,6,Erick Navarrete,Perryton,64.05,163.29,113.4,172.37,449.06,Unlimited,SBD,M,
Boys,67.13,7,Christian Gonzalez,Dumas,64.5,161.03,92.99,156.49,410.5,Unlimited,SBD,M,
Boys,67.13,8,Isiah Sifuentez,Dimmitt,67.13,154.22,88.45,161.03,403.7,Unlimited,SBD,M,
Boys,67.13,9,Adrian Martinez,Vega,66.59,158.76,81.65,151.95,392.36,Unlimited,SBD,M,
Boys,67.13,10,Jose Vargas,Dumas,65.09,149.69,86.18,140.61,376.48,Unlimited,SBD,M,
Boys,67.13,11,Kaiden Medina,Levelland,62.32,117.93,65.77,154.22,337.93,Unlimited,SBD,M,
Boys,67.13,12,Gero Constantino,Dimmitt,65.77,120.2,72.57,142.88,335.66,Unlimited,SBD,M,
Boys,67.13,13,Jedidiah LaRue,Dimmitt,66.95,111.13,74.84,113.4,299.37,Unlimited,SBD,M,
Boys,74.84,1,Oliver Garcia,Dumas,74.84,235.87,111.13,201.85,548.85,Unlimited,SBD,M,
Boys,74.84,2,Ramon Ortiz,Friona,67.49,188.24,120.2,233.6,542.04,Unlimited,SBD,M,
Boys,74.84,3,Abram Rocha,Friona,73.48,188.24,117.93,181.44,487.61,Unlimited,SBD,M,
Boys,74.84,4,Shooter Coon,Dumas,72.3,199.58,111.13,158.76,469.47,Unlimited,SBD,M,
Boys,74.84,5,Sean Newton,Perryton,74.71,174.63,122.47,167.83,464.93,Unlimited,SBD,M,
Boys,74.84,6,Isaiah Gomez,Wolfforth Frenship,72.76,172.37,106.59,183.7,462.66,Unlimited,SBD,M,
Boys,74.84,7,Christian Serna,Wolfforth Frenship,72.85,172.37,99.79,183.7,455.86,Unlimited,SBD,M,
Boys,74.84,8,Alex Keene,Levelland,70.9,151.95,97.52,165.56,415.04,Unlimited,SBD,M,
Boys,74.84,9,Cason Lamm,Vega,69.54,158.76,92.99,154.22,405.97,Unlimited,SBD,M,
Boys,74.84,10,Noah Marin,Hart,73.84,158.76,77.11,170.1,405.97,Unlimited,SBD,M,
Boys,74.84,11,Arnoldo Ogaz,Dimmitt,71.12,165.56,79.38,149.69,394.63,Unlimited,SBD,M,
Boys,74.84,12,Daniel Dominy,Wolfforth Frenship,72.26,145.15,79.38,163.29,387.82,Unlimited,SBD,M,
Boys,74.84,13,Neyo Gauna,Dimmitt,69.58,151.95,77.11,154.22,383.29,Unlimited,SBD,M,
Boys,74.84,14,Ever Campos,Perryton,70.85,124.74,72.57,133.81,331.12,Unlimited,SBD,M,
Boys,74.84,15,Jonas Lopez,Dimmitt,74.3,111.13,61.23,120.2,292.57,Unlimited,SBD,M,
Boys,74.84,DQ,Solomon Lopez,Bovina,69.13,,,,,Unlimited,SBD,M,
Boys,74.84,DQ,Kason Kerin,Wolfforth Frenship,74.75,124.74,,,,Unlimited,SBD,M,
Boys,74.84,DQ,Andrey Gonzalez,Dumas,68.13,161.03,102.06,,,Unlimited,SBD,M,
Boys,82.1,1,Jordan Casas,Dimmitt,80.83,254.01,129.27,233.6,616.89,Unlimited,SBD,M,
Boys,82.1,2,Eidan Loera,Dumas,80.74,217.72,156.49,183.7,557.92,Unlimited,SBD,M,
Boys,82.1,3,Austin Ellis,Levelland,81.28,192.78,120.2,206.38,519.36,Unlimited,SBD,M,
Boys,82.1,4,Cash Black,Vega,77.79,197.31,111.13,199.58,508.02,Unlimited,SBD,M,
Boys,82.1,5,Daniel Ponce,Bovina,80.92,183.7,115.67,190.51,489.88,Unlimited,SBD,M,
Boys,82.1,6,Gauge Casas,Bovina,81.15,188.24,115.67,163.29,467.2,Unlimited,SBD,M,
Boys,82.1,7,Jesus Solano,Levelland,80.42,151.95,115.67,192.78,460.4,Unlimited,SBD,M,
Boys,82.1,8,Nathan Layton,Wolfforth Frenship,76.97,165.56,90.72,197.31,453.59,Unlimited,SBD,M,
Boys,82.1,9,Walker TeVelde,Vega,80.24,161.03,117.93,161.03,439.98,Unlimited,SBD,M,
Boys,82.1,10,Francisco Lozano,Levelland,80.01,142.88,92.99,172.37,408.23,Unlimited,SBD,M,
Boys,82.1,11,Gabriel Hernandez,Levelland,76.34,163.29,90.72,149.69,403.7,Unlimited,SBD,M,
Boys,82.1,12,Atlas Jones,Wolfforth Frenship,79.02,142.88,83.91,174.63,401.43,Unlimited,SBD,M,
Boys,82.1,13,Xaden Vargas,Dimmitt,78.43,165.56,88.45,142.88,396.89,Unlimited,SBD,M,
Boys,82.1,14,Micheal Alvarez,Friona,75.98,149.69,86.18,158.76,394.63,Unlimited,SBD,M,
Boys,82.1,15,Alexandro Herrera,Bovina,80.97,158.76,74.84,142.88,376.48,Unlimited,SBD,M,
Boys,82.1,16,Damian Reyes,Levelland,78.06,124.74,81.65,147.42,353.8,Unlimited,SBD,M,
Boys,82.1,17,Mark Nusz,Wolfforth Frenship,82.1,127.01,77.11,147.42,351.53,Unlimited,SBD,M,
Boys,82.1,18,Marc Morin,Levelland,81.56,124.74,72.57,138.35,335.66,Unlimited,SBD,M,
Boys,82.1,19,Elijah Crawford,Vega,76.88,138.35,68.04,124.74,331.12,Unlimited,SBD,M,
Boys,89.81,1,Victor Escobar,Dimmitt,88.86,231.33,142.88,192.78,566.99,Unlimited,SBD,M,
Boys,89.81,2,Charlie Gomez,Dumas,87.27,195.04,127.01,197.31,519.36,Unlimited,SBD,M,
Boys,89.81,3,Isaac Huerta,Dumas,88,188.24,124.74,188.24,501.22,Unlimited,SBD,M,
Boys,89.81,4,Angel Saucedo,Friona,87.54,185.97,106.59,181.44,474,Unlimited,SBD,M,
Boys,89.81,5,Christian Flores,Wolfforth Frenship,85.55,165.56,133.81,151.95,451.32,Unlimited,SBD,M,
Boys,89.81,6,Julius Rosales,Lockney,85,147.42,102.06,158.76,408.23,Unlimited,SBD,M,
Boys,89.81,7,Danny Nguyen,Wolfforth Frenship,85.23,136.08,72.57,170.1,378.75,Unlimited,SBD,M,
Boys,89.81,8,Mason Larkin,Vega,83.73,136.08,77.11,147.42,360.61,Unlimited,SBD,M,
Boys,89.81,DQ,Jose Salas,Bovina,87.23,,,,,Unlimited,SBD,M,
Boys,99.79,1,Ishmael Flores,Friona,99.79,285.76,192.78,244.94,723.48,Unlimited,SBD,M,
Boys,99.79,2,Joe Pena,Levelland,98.7,231.33,140.61,195.04,566.99,Unlimited,SBD,M,
Boys,99.79,3,Xavier Jimenez,Lockney,91.04,222.26,124.74,181.44,528.44,Unlimited,SBD,M,
Boys,99.79,4,Gustavo Lopez,Dimmitt,95.25,208.65,113.4,192.78,514.83,Unlimited,SBD,M,
Boys,99.79,5,Jaime Barron,Perryton,98.57,199.58,124.74,185.97,510.29,Unlimited,SBD,M,
Boys,99.79,6,Deven Ponce,Levelland,99.74,201.85,108.86,183.7,494.42,Unlimited,SBD,M,
Boys,99.79,7,Dallas Barron,Dimmitt,99.56,158.76,92.99,142.88,394.63,Unlimited,SBD,M,
Boys,99.79,8,Abraham Sosa,Perryton,99.29,122.47,88.45,142.88,353.8,Unlimited,SBD,M,
Boys,99.79,9,Tyler Mansell,Levelland,93.26,72.57,49.9,88.45,210.92,Unlimited,SBD,M,
Boys,109.77,1,Frank Perez,Friona,101.02,263.08,158.76,242.67,664.51,Unlimited,SBD,M,
Boys,109.77,2,Luis Castellanos,Levelland,109.54,210.92,156.49,217.72,585.13,Unlimited,SBD,M,
Boys,109.77,3,Diego Quezada,Friona,104.78,199.58,122.47,199.58,521.63,Unlimited,SBD,M,
Boys,109.77,4,Eden Mills,Friona,107.64,217.72,124.74,176.9,519.36,Unlimited,SBD,M,
Boys,109.77,5,Justus Johns,Wolfforth Frenship,109.36,183.7,142.88,190.51,517.1,Unlimited,SBD,M,
Boys,109.77,6,Brandon Lucero,Wolfforth Frenship,105.46,156.49,63.5,161.03,381.02,Unlimited,SBD,M,
Boys,124.74,1,Miguel Gonzalez,Vega,110.63,226.8,136.08,195.04,557.92,Unlimited,SBD,M,
Boys,124.74,2,Juan Jimenez,Dumas,114.89,229.06,131.54,197.31,557.92,Unlimited,SBD,M,
Boys,124.74,3,Edward Longoria,Lockney,115.98,213.19,131.54,192.78,537.51,Unlimited,SBD,M,
Boys,124.74,4,Elias Becerril,Perryton,121.02,190.51,106.59,170.1,467.2,Unlimited,SBD,M,
Boys,124.74,5,Aydin Ybarra,Dimmitt,116.85,102.06,97.52,156.49,356.07,Unlimited,SBD,M,
Boys,124.74,6,Landry Anderson,Perryton,124.01,165.56,102.06,163.29,430.91,Unlimited,SBD,M,
Boys,124.74,7,Taige Tindel,Levelland,111.36,145.15,104.33,,249.48,Unlimited,SB,M,
Boys,139.71,1,Brandon Trujillo,Vega,130.86,154.22,88.45,147.42,390.09,Unlimited,SBD,M,
Boys,139.71,2,Bryson Salas,Wolfforth Frenship,131.77,138.35,88.45,151.95,378.75,Unlimited,SBD,M,
Boys,139.71+,1,Caden Pritchard,Lockney,147.87,272.16,185.97,204.12,662.24,Unlimited,SBD,M,
Boys,139.71+,2,Tiden Temple,Dumas,163.29,188.24,149.69,190.51,528.44,Unlimited,SBD,M,
Boys,,NS,Aaron Rodriguez,Friona,,,,,,Unlimited,SBD,M,
Boys,,NS,Isaac Tavera,Bovina,,,,,,Unlimited,SBD,M,
Boys,,NS,Landon Cousins,Vega,,,,,,Unlimited,SBD,M,
Boys,,NS,Russell Casillas,Lockney,,,,,,Unlimited,SBD,M,
