Division,WeightClassKg,Place,Name,Team,BodyweightKg,Best3SquatKg,Best3BenchKg,Best3DeadliftKg,TotalKg,Equipment,Event,Sex,BirthDate
Boys,59.87,1,Jose Franco,Denver City,59.42,102.06,68.04,111.13,281.23,Single-ply,SBD,M,
Boys,59.87,2,Marcus Gonzales,Plains,56.25,77.11,54.43,111.13,242.67,Single-ply,SBD,M,
Boys,67.13,1,Jhoan Menjivar,Plains,60.78,136.08,88.45,142.88,367.41,Single-ply,SBD,M,
Boys,67.13,2,Richard Maldonado,Plains,63.5,113.4,72.57,106.59,292.57,Single-ply,SBD,M,
Boys,67.13,3,Alec Martinez,Denver City,61.69,99.79,72.57,115.67,288.03,Single-ply,SBD,M,
Boys,67.13,4,Marcus Aguilar,Seminole,63.78,99.79,58.97,120.2,278.96,Single-ply,SBD,M,
Boys,67.13,5,Gael Lozano,Plains,66.22,81.65,40.82,104.33,226.8,Single-ply,SBD,M,
Boys,67.13,DQ,Baltazar Castillo,Plains,67.13,,,,,Single-ply,SBD,M,
Boys,67.13,DQ,Daxston Swimmer,Plains,62.14,,,,,Single-ply,SBD,M,
Boys,74.84,1,Nelson Avila,Plains,73.03,142.88,90.72,149.69,383.29,Single-ply,SBD,M,
Boys,74.84,2,Dillon Gretch,Seminole,74.43,138.35,68.04,151.95,358.34,Single-ply,SBD,M,
Boys,74.84,3,Dayven Rosalez,Seminole,67.59,115.67,74.84,142.88,333.39,Single-ply,SBD,M,
Boys,74.84,4,Andrew Velasco,Denver City,68.95,113.4,83.91,129.27,326.59,Single-ply,SBD,M,
Boys,74.84,5,Zach Mendez,Plains,74.84,108.86,77.11,140.61,326.59,Single-ply,SBD,M,
Boys,74.84,DQ,Jonah Escalante,Denver City,68.95,,,,,Single-ply,SBD,M,
Boys,74.84,DQ,Derrick Valdespino,Denver City,69.85,,,,,Single-ply,SBD,M,
Boys,82.1,1,Jeremiah Talamantes,Seminole,75.93,183.7,95.25,174.63,453.59,Single-ply,SBD,M,
Boys,82.1,2,Logan Jennings,Seminole,76.29,174.63,83.91,161.03,419.57,Single-ply,SBD,M,
Boys,82.1,3,Austin Vanriper,Seminole,75.84,117.93,92.99,156.49,367.41,Single-ply,SBD,M,
Boys,82.1,DQ,Jonathan Badillo,Plains,82.1,,,,,Single-ply,SBD,M,
Boys,89.81,1,Jose Velasco,Denver City,88.9,172.37,120.2,176.9,469.47,Single-ply,SBD,M,
Boys,99.79,1,Alexander Wootton,Seminole,99.16,272.16,158.76,272.16,703.07,Single-ply,SBD,M,
Boys,99.79,2,Marquez Garcia,Denver City,95.25,183.7,111.13,151.95,446.79,Single-ply,SBD,M,
Boys,109.77,1,Manny Gonzalez,Denver City,109.32,210.92,127.01,204.12,542.04,Single-ply,SBD,M,
Boys,109.77,2,Kade Pope,Denver City,104.33,183.7,92.99,183.7,460.4,Single-ply,SBD,M,
Boys,109.77,3,Angel Lozano,Plains,105.69,167.83,108.86,179.17,455.86,Single-ply,SBD,M,
Boys,109.77,4,Angel Orona,Denver City,102.51,167.83,81.65,172.37,421.84,Single-ply,SBD,M,
Boys,109.77,5,Ryan Sinclair,Seminole,105.69,142.88,68.04,133.81,344.73,Single-ply,SBD,M,
Boys,109.77,6,Jake Sumrow,Seminole,104.78,113.4,81.65,142.88,337.93,Single-ply,SBD,M,
Boys,109.77,7,Jackson Campbell,Seminole,107.05,72.57,45.36,102.06,219.99,Single-ply,SBD,M,
Boys,124.74,1,Jesus Trabado,Denver City,114.76,204.12,140.61,190.51,535.24,Single-ply,SBD,M,
Boys,124.74,2,Carson Cox #1,Seminole,112.94,156.49,88.45,156.49,401.43,Single-ply,SBD,M,
Boys,,NS,Brayden Gonzalez,Denver City,,,,,,Single-ply,SBD,M,
